(Mesh) CC: 0.0,-0.737950384617,-0.287045270205
(Mesh) RN: 0.169924438,-0.075740583241,-0.270587563515
(Mesh) LN: -0.170000001788,-0.075740583241,-0.270587563515
(Mesh) RELC: 0.163000002503,0.308043420315,-0.379380583763
(Mesh) REC: 0.317999988794,0.325517624617,-0.364152908325
(Mesh) RERC: 0.446999996901,0.321149080992,-0.44200900197
(Mesh) RBRC: 0.479999989271,0.471864163876,-0.385265737772
(Mesh) RBC: 0.303000003099,0.508996844292,-0.268159687519
(Mesh) RBLC: 0.105999998748,0.498075485229,-0.212812066078
(Mesh) MRC: 0.272000014782,-0.347239643335,-0.329278260469
(Mesh) RE: 0.674000024796,-0.151652157307,-1.0681886673
(Mesh) NC: 0.0,0.0,0.0
(Mesh) MC: 0.0,-0.336318254471,-0.205582618713
(Mesh) MLC: -0.272456139326,-0.347239643335,-0.329278260469
(Mesh) LE: -0.674257874489,-0.151652157307,-1.0681886673
(Mesh) LBRC: -0.106451146305,0.498075485229,-0.212812066078
(Mesh) LBC: -0.30303606391,0.508996844292,-0.268159687519
(Mesh) LBLC: -0.479962468147,0.471864163876,-0.385265737772
(Mesh) LERC: -0.163242310286,0.308043420315,-0.379380583763
(Mesh) LEC: -0.318325966597,0.325517624617,-0.364152908325
(Mesh) LELC: -0.447198301554,0.321149080992,-0.44200900197

